 matrix_read; 0; 0; 0.6727523940003266
 spark_setup; 0; 1; 20.424196741000287
 spark_rdd; 0; 1; 0.5149694140000065
 coordinate_matrix; 0; 1; 8.935155086999657
 svd; 0; 1; 14.540973695000048
 pca; 0; 1; 2.727568144000088
 spark_setup; 1; 1; 7.1331466310002725
 spark_rdd; 1; 1; 0.040238001000034274
 coordinate_matrix; 1; 1; 11.188514848000068
 svd; 1; 1; 10.36507183499998
 pca; 1; 1; 2.0256629400000747
 spark_setup; 2; 1; 7.875329759000124
 spark_rdd; 2; 1; 0.07240116799994212
 coordinate_matrix; 2; 1; 10.65797355299992
 svd; 2; 1; 9.574744678000116
 pca; 2; 1; 1.6625380360001145
 spark_setup; 3; 1; 7.853494366000177
 spark_rdd; 3; 1; 0.021515256999919075
 coordinate_matrix; 3; 1; 10.650001763000091
 svd; 3; 1; 9.189209122999728
 pca; 3; 1; 1.6208914470007585
 spark_setup; 4; 1; 7.945204007000029
 spark_rdd; 4; 1; 0.02786121200006164
 coordinate_matrix; 4; 1; 12.245446120999986
 svd; 4; 1; 8.877968871000121
 pca; 4; 1; 1.789076654999917
 matrix_read; 0; 0; 0.8027347670004019
 spark_setup; 0; 1; 17.285607193000033
 spark_rdd; 0; 1; 0.4606986910002888
 coordinate_matrix; 0; 1; 9.150577511999472
 svd; 0; 1; 13.69540301699999
 pca; 0; 1; 2.9180531669999255
 spark_setup; 1; 1; 7.963716370999464
 spark_rdd; 1; 1; 0.043000007000046025
 coordinate_matrix; 1; 1; 11.32901970200055
 svd; 1; 1; 10.20158166300007
 pca; 1; 1; 2.1791570570003387
 spark_setup; 2; 1; 7.027945696999268
 spark_rdd; 2; 1; 0.046092136999504874
 coordinate_matrix; 2; 1; 11.367167624000103
 svd; 2; 1; 10.710364452000249
 pca; 2; 1; 1.7658361419998982
 spark_setup; 3; 1; 7.990078697000172
 spark_rdd; 3; 1; 0.04108256600011373
 coordinate_matrix; 3; 1; 12.12576050899952
 svd; 3; 1; 9.03197991900015
 pca; 3; 1; 1.7396269370001392
 spark_setup; 4; 1; 8.069029490000503
 spark_rdd; 4; 1; 0.0278835290000643
 coordinate_matrix; 4; 1; 11.103167884999493
 svd; 4; 1; 8.821448175999649
 pca; 4; 1; 1.6772143250000227
 matrix_read; 0; 0; 0.67230415099948
 spark_setup; 0; 1; 17.485803165000107
 spark_rdd; 0; 1; 0.4191899879988341
 coordinate_matrix; 0; 1; 9.130351148000045
 svd; 0; 1; 13.645735919999424
 pca; 0; 1; 2.583362377999947
 spark_setup; 1; 1; 8.006044540001312
 spark_rdd; 1; 1; 0.038240594001763384
 coordinate_matrix; 1; 1; 10.75919477000025
 svd; 1; 1; 10.393810990999555
 pca; 1; 1; 1.9595923329998186
 spark_setup; 2; 1; 8.100781302999167
 spark_rdd; 2; 1; 0.030975777001003735
 coordinate_matrix; 2; 1; 12.525386740000613
 svd; 2; 1; 9.064534233000813
 pca; 2; 1; 1.6283030829999916
 spark_setup; 3; 1; 8.745381152000846
 spark_rdd; 3; 1; 0.06792872699952568
 coordinate_matrix; 3; 1; 10.092905781999434
 svd; 3; 1; 9.091827473999729
 pca; 3; 1; 1.6272531430004165
 spark_setup; 4; 1; 8.797461644999203
 spark_rdd; 4; 1; 0.05640082900026755
 coordinate_matrix; 4; 1; 12.204134120000163
 svd; 4; 1; 8.83418823700049
 pca; 4; 1; 1.6954257840006903
 matrix_read; 0; 0; 0.6705153259990766
 spark_setup; 0; 1; 17.14456249400064
 spark_rdd; 0; 1; 0.4105897230001574
 coordinate_matrix; 0; 1; 9.890169926999079
 svd; 0; 1; 14.004294356000173
 pca; 0; 1; 2.599379986999338
 spark_setup; 1; 1; 8.11069427899929
 spark_rdd; 1; 1; 0.043155008999747224
 coordinate_matrix; 1; 1; 11.33586610400016
 svd; 1; 1; 10.076637294998363
 pca; 1; 1; 1.9956178079992242
 spark_setup; 2; 1; 7.8902256850014965
 spark_rdd; 2; 1; 0.029838648999430006
 coordinate_matrix; 2; 1; 10.842933890000495
 svd; 2; 1; 10.036990083001001
 pca; 2; 1; 1.8812472580011672
 spark_setup; 3; 1; 8.057997779000289
 spark_rdd; 3; 1; 0.043845209998835344
 coordinate_matrix; 3; 1; 11.102536477001195
 svd; 3; 1; 9.827928732000146
 pca; 3; 1; 1.8137474230006774
 spark_setup; 4; 1; 8.02466472299966
 spark_rdd; 4; 1; 0.04370943299909413
 coordinate_matrix; 4; 1; 9.003141847000734
 svd; 4; 1; 10.356209555000532
 pca; 4; 1; 1.8646398230011982
 matrix_read; 0; 0; 0.7224313000006077
 spark_setup; 0; 1; 19.64210149199971
 spark_rdd; 0; 1; 0.39462093400106824
 coordinate_matrix; 0; 1; 8.559181024998907
 svd; 0; 1; 15.013050409999778
 pca; 0; 1; 2.47529911699894
 spark_setup; 1; 1; 8.257568953000373
 spark_rdd; 1; 1; 0.05443558499973733
 coordinate_matrix; 1; 1; 10.6969829690006
 svd; 1; 1; 10.14536450200103
 pca; 1; 1; 1.9869194599996263
 spark_setup; 2; 1; 7.96262551899963
 spark_rdd; 2; 1; 0.03720532199986337
 coordinate_matrix; 2; 1; 10.803038882000692
 svd; 2; 1; 8.96145194699966
 pca; 2; 1; 1.6306621500007168
 spark_setup; 3; 1; 7.7659991969994735
 spark_rdd; 3; 1; 0.07640984099998605
 coordinate_matrix; 3; 1; 9.220373451000341
 svd; 3; 1; 9.002306981999936
 pca; 3; 1; 1.8222734099999798
 spark_setup; 4; 1; 7.791511663001074
 spark_rdd; 4; 1; 0.03430688300068141
 coordinate_matrix; 4; 1; 10.8581378509989
 svd; 4; 1; 9.002252456999486
 pca; 4; 1; 1.693639343000541
 matrix_read; 0; 0; 0.9291062140000577
 spark_setup; 0; 1; 18.451581583000007
 spark_rdd; 0; 1; 0.5205255520013452
 coordinate_matrix; 0; 1; 8.53542459900018
 svd; 0; 1; 14.51256407800065
 pca; 0; 1; 2.675015232000078
 spark_setup; 1; 1; 7.076662479999868
 spark_rdd; 1; 1; 0.046893759001250146
 coordinate_matrix; 1; 1; 11.24194558399904
 svd; 1; 1; 10.647868832998938
 pca; 1; 1; 1.9853587000015978
 spark_setup; 2; 1; 7.936068461000104
 spark_rdd; 2; 1; 0.04532662000019627
 coordinate_matrix; 2; 1; 10.943290963001346
 svd; 2; 1; 9.208196321998912
 pca; 2; 1; 2.1300757090011757
 spark_setup; 3; 1; 7.162864867999815
 spark_rdd; 3; 1; 0.031556805999571225
 coordinate_matrix; 3; 1; 10.557310575000884
 svd; 3; 1; 9.298433755999213
 pca; 3; 1; 1.6669392769999831
 spark_setup; 4; 1; 8.88296358200023
 spark_rdd; 4; 1; 0.06277940799918724
 coordinate_matrix; 4; 1; 10.964515955000024
 svd; 4; 1; 8.839980246999403
 pca; 4; 1; 1.6776247039997543
 matrix_read; 0; 0; 0.6695983350000461
 spark_setup; 0; 10; 17.56161011900076
 spark_rdd; 0; 10; 0.4424547969993
 coordinate_matrix; 0; 10; 9.20735415800118
 svd; 0; 10; 12.873626373000661
 pca; 0; 10; 2.7016629760000797
 spark_setup; 1; 10; 8.053494391999266
 spark_rdd; 1; 10; 0.046161330999893835
 coordinate_matrix; 1; 10; 10.95772002800004
 svd; 1; 10; 10.372499000000971
 pca; 1; 10; 2.090192534999005
 spark_setup; 2; 10; 8.048090715999933
 spark_rdd; 2; 10; 0.03286314199976914
 coordinate_matrix; 2; 10; 10.406550798999888
 svd; 2; 10; 9.052744410999367
 pca; 2; 10; 1.696161164998557
 spark_setup; 3; 10; 7.898303693000344
 spark_rdd; 3; 10; 0.03086749999965832
 coordinate_matrix; 3; 10; 9.99656443099957
 svd; 3; 10; 9.342300935999447
 pca; 3; 10; 1.63108843199916
 spark_setup; 4; 10; 7.952930497000125
 spark_rdd; 4; 10; 0.02252314799989108
 coordinate_matrix; 4; 10; 10.142767564000678
 svd; 4; 10; 9.09981770000013
 pca; 4; 10; 1.78136850699957
 matrix_read; 0; 0; 0.680483660000391
 spark_setup; 0; 10; 20.38273389799906
 spark_rdd; 0; 10; 0.5071542160003446
 coordinate_matrix; 0; 10; 7.857879799999864
 svd; 0; 10; 13.041672506000396
 pca; 0; 10; 2.6444317730001785
 spark_setup; 1; 10; 7.02482271900044
 spark_rdd; 1; 10; 0.05904743800056167
 coordinate_matrix; 1; 10; 11.320306531000824
 svd; 1; 10; 10.088545929000247
 pca; 1; 10; 3.099404921000314
 spark_setup; 2; 10; 8.019233585999245
 spark_rdd; 2; 10; 0.03237659200021881
 coordinate_matrix; 2; 10; 9.853585476001172
 svd; 2; 10; 9.609888003000378
 pca; 2; 10; 1.9074498539994238
 spark_setup; 3; 10; 7.033676629000183
 spark_rdd; 3; 10; 0.03683977699984098
 coordinate_matrix; 3; 10; 9.928906446000838
 svd; 3; 10; 9.645997771998736
 pca; 3; 10; 1.7284475640008168
 spark_setup; 4; 10; 8.07554811800037
 spark_rdd; 4; 10; 0.06989005499963241
 coordinate_matrix; 4; 10; 9.893365699999777
 svd; 4; 10; 9.328806343000906
 matrix_read; 0; 0; 0.6719866069997806
 spark_setup; 0; 10; 17.955042304000017
 spark_rdd; 0; 10; 0.4006795549994422
 coordinate_matrix; 0; 10; 9.100566257000537
 svd; 0; 10; 12.641286619998937
 pca; 0; 10; 2.8291818809993856
 spark_setup; 1; 10; 8.088929859000928
 spark_rdd; 1; 10; 0.06222947099922749
 coordinate_matrix; 1; 10; 9.632504885001254
 svd; 1; 10; 9.64648595899962
 pca; 1; 10; 2.3109406940002373
 spark_setup; 2; 10; 7.809912152000834
 spark_rdd; 2; 10; 0.03403668100145296
 coordinate_matrix; 2; 10; 10.606833932999507
 svd; 2; 10; 9.331473396998263
 pca; 2; 10; 1.899935835001088
 spark_setup; 3; 10; 7.970353220000106
 spark_rdd; 3; 10; 0.02105683800073166
 coordinate_matrix; 3; 10; 9.815618263000943
 svd; 3; 10; 9.019978709000497
 pca; 3; 10; 1.8427138130009553
 spark_setup; 4; 10; 6.886400405999666
 spark_rdd; 4; 10; 0.03033564299948921
 coordinate_matrix; 4; 10; 10.444782216000021
 svd; 4; 10; 9.011944294999921
 pca; 4; 10; 1.9704780579995713
 matrix_read; 0; 0; 0.6711341039990657
 spark_setup; 0; 10; 17.691018399000313
 spark_rdd; 0; 10; 0.4527304900002491
 coordinate_matrix; 0; 10; 9.430687202000627
 svd; 0; 10; 13.213368337999782
 pca; 0; 10; 2.481780426000114
 spark_setup; 1; 10; 7.924469212999611
 spark_rdd; 1; 10; 0.038119016999189625
 coordinate_matrix; 1; 10; 10.98898107900095
 svd; 1; 10; 9.78544898600012
 pca; 1; 10; 2.0921256100009487
 spark_setup; 2; 10; 7.875981735998721
 spark_rdd; 2; 10; 0.02632331300083024
 coordinate_matrix; 2; 10; 10.621298346000913
 svd; 2; 10; 8.932148428999426
 pca; 2; 10; 1.9579599059998145
 spark_setup; 3; 10; 7.997194899000533
 spark_rdd; 3; 10; 0.021418561000245973
 coordinate_matrix; 3; 10; 9.499992763998307
 svd; 3; 10; 8.894917972000258
 pca; 3; 10; 1.7194814089998545
 spark_setup; 4; 10; 7.887660907999816
 spark_rdd; 4; 10; 0.0463216360003571
 coordinate_matrix; 4; 10; 10.081003295999835
 svd; 4; 10; 8.47834961999979
 pca; 4; 10; 1.7854842460001237
 matrix_read; 0; 0; 0.7408945269999094
 spark_setup; 0; 2; 18.986471168000207
 spark_rdd; 0; 2; 0.4627406469999187
 coordinate_matrix; 0; 2; 9.247073653999905
 svd; 0; 2; 12.89700509100021
 pca; 0; 2; 2.405165569000019
 spark_setup; 1; 2; 8.282850411999789
 spark_rdd; 1; 2; 0.07483656400017935
 coordinate_matrix; 1; 2; 10.41649039799995
 svd; 1; 2; 11.258315502999722
 pca; 1; 2; 5.098807039000349
 spark_setup; 2; 2; 8.755507690999366
 spark_rdd; 2; 2; 0.07926365799994528
 coordinate_matrix; 2; 2; 10.365613637000024
 svd; 2; 2; 9.455243710000104
 pca; 2; 2; 1.7545634529997187
 spark_setup; 3; 2; 8.279592326000056
 spark_rdd; 3; 2; 0.025511814999845228
 coordinate_matrix; 3; 2; 9.430120603000432
 svd; 3; 2; 10.00656855499983
 pca; 3; 2; 1.8356781340007728
 spark_setup; 4; 2; 8.20005978899917
 spark_rdd; 4; 2; 0.021445196999593463
 coordinate_matrix; 4; 2; 10.371079767000083
 svd; 4; 2; 8.980723835999925
 pca; 4; 2; 1.733444886000143
 matrix_read; 0; 0; 0.6698913379996156
 spark_setup; 0; 2; 18.208357466000052
 spark_rdd; 0; 2; 0.4352868360001594
 coordinate_matrix; 0; 2; 9.321508271999846
 svd; 0; 2; 12.246685598999647
 pca; 0; 2; 2.4969890209995356
 spark_setup; 1; 2; 8.040054517000499
 spark_rdd; 1; 2; 0.05112887599989335
 coordinate_matrix; 1; 2; 10.658035893000488
 svd; 1; 2; 10.412699428000451
 pca; 1; 2; 1.9588115629994718
 spark_setup; 2; 2; 8.000298879000184
 spark_rdd; 2; 2; 0.056995084999471146
 coordinate_matrix; 2; 2; 10.32210500400015
 svd; 2; 2; 9.133499408000716
 pca; 2; 2; 1.7505209399996602
 spark_setup; 3; 2; 7.979286183000113
 spark_rdd; 3; 2; 0.022049975999834714
 coordinate_matrix; 3; 2; 10.102564969999548
 svd; 3; 2; 9.52086416900056
 pca; 3; 2; 1.6706265009997878
 spark_setup; 4; 2; 7.872500833000231
 spark_rdd; 4; 2; 0.025450981000176398
 coordinate_matrix; 4; 2; 10.111226019000242
 svd; 4; 2; 8.939385374999802
 pca; 4; 2; 1.7515847450004003
 matrix_read; 0; 0; 0.6813206790011463
 spark_setup; 0; 2; 17.622556535001422
 spark_rdd; 0; 2; 0.41369738899993536
 coordinate_matrix; 0; 2; 9.217155178001121
 svd; 0; 2; 12.471042538998518
 pca; 0; 2; 2.701317992999975
 spark_setup; 1; 2; 7.039663638001002
 spark_rdd; 1; 2; 0.06376501199883933
 coordinate_matrix; 1; 2; 10.620391315998859
 svd; 1; 2; 10.544739795999703
 pca; 1; 2; 1.9764532019999024
 spark_setup; 2; 2; 7.973902838999493
 spark_rdd; 2; 2; 0.047962962999008596
 coordinate_matrix; 2; 2; 10.869988607999403
 svd; 2; 2; 9.026747128998977
 pca; 2; 2; 1.6733871169999475
 spark_setup; 3; 2; 7.725405125998805
 spark_rdd; 3; 2; 0.0262876189990493
 coordinate_matrix; 3; 2; 10.354351469000903
 svd; 3; 2; 9.237037454000529
 pca; 3; 2; 1.6832754330007447
 spark_setup; 4; 2; 7.825225165001029
 spark_rdd; 4; 2; 0.055049213999154745
 coordinate_matrix; 4; 2; 10.188744439999937
 svd; 4; 2; 8.657338955999876
 pca; 4; 2; 1.8466181330004474
 matrix_read; 0; 0; 0.7574200430008204
 spark_setup; 0; 2; 19.334176686999854
 spark_rdd; 0; 2; 0.4109587200000533
 coordinate_matrix; 0; 2; 9.546659767000165
 svd; 0; 2; 13.211407636999866
 pca; 0; 2; 3.5646636439996655
 spark_setup; 1; 2; 8.00903355400078
 spark_rdd; 1; 2; 0.06780356700073753
 coordinate_matrix; 1; 2; 9.737887646999297
 svd; 1; 2; 10.238512639001783
 pca; 1; 2; 1.997774796000158
 spark_setup; 2; 2; 7.937183599999116
 spark_rdd; 2; 2; 0.02630082100040454
 coordinate_matrix; 2; 2; 10.449479000000792
 svd; 2; 2; 9.299804545998995
 pca; 2; 2; 1.6815986879992124
 spark_setup; 3; 2; 7.805989000000409
 spark_rdd; 3; 2; 0.049292708999928436
 coordinate_matrix; 3; 2; 10.836499232000278
 svd; 3; 2; 9.227045513000121
 pca; 3; 2; 2.3106947500000388
 spark_setup; 4; 2; 7.798903868000707
 spark_rdd; 4; 2; 0.019605474999480066
 coordinate_matrix; 4; 2; 9.860856600998886
 svd; 4; 2; 8.25725432299987
 matrix_read; 0; 0; 0.6759298150009272
 spark_setup; 0; 2; 17.359304374000203
 spark_rdd; 0; 2; 0.3930869219984743
 coordinate_matrix; 0; 2; 9.893619618998855
 svd; 0; 2; 12.973965989000135
 pca; 0; 2; 2.811625020000065
 spark_setup; 1; 2; 8.220480680998662
 spark_rdd; 1; 2; 0.044916799999555224
 coordinate_matrix; 1; 2; 10.267006450998451
 svd; 1; 2; 10.0647409409994
 pca; 1; 2; 1.9430961229991226
 spark_setup; 2; 2; 8.04752334099976
 spark_rdd; 2; 2; 0.03990722799971991
 coordinate_matrix; 2; 2; 10.172517132999928
 svd; 2; 2; 8.992739088000235
 pca; 2; 2; 1.626742586000546
 spark_setup; 3; 2; 7.93351682499997
 spark_rdd; 3; 2; 0.043124783000166644
 coordinate_matrix; 3; 2; 9.851881385000524
 svd; 3; 2; 9.242133301999274
 pca; 3; 2; 1.6293281279995426
 spark_setup; 4; 2; 7.9003103239992925
 spark_rdd; 4; 2; 0.025445802000831463
 coordinate_matrix; 4; 2; 10.202302855999733
 svd; 4; 2; 8.734281121000095
 pca; 4; 2; 1.6876593509987288
 matrix_read; 0; 0; 0.6763499239987141
 spark_setup; 0; 2; 18.234303224999167
 spark_rdd; 0; 2; 0.4617249189996073
 coordinate_matrix; 0; 2; 9.565611494999757
 svd; 0; 2; 13.529597632001241
 pca; 0; 2; 2.420590944999276
 spark_setup; 1; 2; 8.03927359500085
 spark_rdd; 1; 2; 0.10149861200079613
 coordinate_matrix; 1; 2; 10.427744365000763
 svd; 1; 2; 10.085009774000355
 pca; 1; 2; 2.0585104870006035
 spark_setup; 2; 2; 8.923329637000279
 spark_rdd; 2; 2; 0.0306357579993346
 coordinate_matrix; 2; 2; 11.045542258998466
 svd; 2; 2; 9.177444593000473
 pca; 2; 2; 1.63794229099949
 spark_setup; 3; 2; 7.893381542000498
 spark_rdd; 3; 2; 0.02240398899994034
 coordinate_matrix; 3; 2; 9.805411865998394
 svd; 3; 2; 8.608331285000531
 pca; 3; 2; 1.629712854999525
 spark_setup; 4; 2; 7.78335368199987
 spark_rdd; 4; 2; 0.024614972000563284
 coordinate_matrix; 4; 2; 10.77198347400008
 svd; 4; 2; 8.965238628999941
 pca; 4; 2; 1.721407001001353
 matrix_read; 0; 0; 0.7979963750003662
 spark_setup; 0; 3; 20.59267715199985
 spark_rdd; 0; 3; 0.46807629100021586
 coordinate_matrix; 0; 3; 9.25542154499999
 svd; 0; 3; 12.990833415999987
 pca; 0; 3; 2.4424145609991683
 spark_setup; 1; 3; 8.166915167000298
 spark_rdd; 1; 3; 0.054833738000525045
 coordinate_matrix; 1; 3; 10.148275924999325
 svd; 1; 3; 10.228526456000509
 pca; 1; 3; 2.1296169429997462
 spark_setup; 2; 3; 8.033381442999598
 spark_rdd; 2; 3; 0.028658220000579604
 coordinate_matrix; 2; 3; 10.110854122000092
 svd; 2; 3; 9.220390221999878
 pca; 2; 3; 1.6665450450000208
 spark_setup; 3; 3; 8.063309731999652
 spark_rdd; 3; 3; 0.021169589000237465
 coordinate_matrix; 3; 3; 9.84163357700072
 svd; 3; 3; 9.574605452000469
 pca; 3; 3; 1.6829994750005426
 spark_setup; 4; 3; 7.855733561999841
 spark_rdd; 4; 3; 0.052926360000128625
 coordinate_matrix; 4; 3; 10.0151023239996
 svd; 4; 3; 8.825361946999692
 pca; 4; 3; 1.6789708899996185
 matrix_read; 0; 0; 0.6737818250003329
 spark_setup; 0; 3; 17.514304530000118
 spark_rdd; 0; 3; 0.5306345870003497
 coordinate_matrix; 0; 3; 9.148027209999782
 svd; 0; 3; 12.84914095000022
 pca; 0; 3; 2.402407585999754
 spark_setup; 1; 3; 8.001191957999254
 spark_rdd; 1; 3; 0.05054474500047945
 coordinate_matrix; 1; 3; 10.787783063999996
 svd; 1; 3; 9.886514493000504
 pca; 1; 3; 1.9285016169997107
 spark_setup; 2; 3; 8.525274462999732
 spark_rdd; 2; 3; 0.03037391700036096
 coordinate_matrix; 2; 3; 9.942003564000515
 svd; 2; 3; 9.293839869000294
 pca; 2; 3; 1.627622469999551
 spark_setup; 3; 3; 6.715448032000495
 spark_rdd; 3; 3; 0.03541292999943835
 coordinate_matrix; 3; 3; 11.162805252999533
 svd; 3; 3; 9.172685087999525
 pca; 3; 3; 1.6241212329996415
 spark_setup; 4; 3; 8.131851126000583
 spark_rdd; 4; 3; 0.01977686200007156
 coordinate_matrix; 4; 3; 11.357224714999575
 svd; 4; 3; 9.43329303399969
 pca; 4; 3; 1.6785619490001409
 matrix_read; 0; 0; 0.6713911210008519
 spark_setup; 0; 3; 17.55057517000023
 spark_rdd; 0; 3; 0.3948246050003945
 coordinate_matrix; 0; 3; 9.338699686999462
 svd; 0; 3; 12.677706172000399
 pca; 0; 3; 2.7194379529992148
 spark_setup; 1; 3; 6.949523674000375
 spark_rdd; 1; 3; 0.051623834000565694
 coordinate_matrix; 1; 3; 10.894864042000336
 svd; 1; 3; 9.8141635209995
 pca; 1; 3; 2.155429382000875
 spark_setup; 2; 3; 7.996770749001371
 spark_rdd; 2; 3; 0.030656150998765952
 coordinate_matrix; 2; 3; 10.01296229699983
 svd; 2; 3; 9.198211984001318
 pca; 2; 3; 2.0384776160008187
 spark_setup; 3; 3; 8.052940727999157
 spark_rdd; 3; 3; 0.10195922599996265
 coordinate_matrix; 3; 3; 9.917507493999437
 svd; 3; 3; 9.274564543999077
 pca; 3; 3; 1.8252575389997219
 spark_setup; 4; 3; 8.005257879000055
 spark_rdd; 4; 3; 0.08735816199987312
 coordinate_matrix; 4; 3; 9.713183458999993
 svd; 4; 3; 8.762594997000633
 pca; 4; 3; 1.8377822570000717
 matrix_read; 0; 0; 0.6696638550001808
 spark_setup; 0; 3; 17.200627817001077
 spark_rdd; 0; 3; 0.46935640199990303
 coordinate_matrix; 0; 3; 8.928381031000754
 svd; 0; 3; 12.443659227999888
 pca; 0; 3; 2.895245182000508
 spark_setup; 1; 3; 8.22367834599936
 spark_rdd; 1; 3; 0.07106102500074485
 coordinate_matrix; 1; 3; 10.522173683000801
 svd; 1; 3; 9.918862859998626
 pca; 1; 3; 2.1934943910000584
 spark_setup; 2; 3; 7.848907907000466
 spark_rdd; 2; 3; 0.056155281999963336
 coordinate_matrix; 2; 3; 10.324297867999121
 svd; 2; 3; 8.777275962000203
 pca; 2; 3; 1.6588014070002828
 spark_setup; 3; 3; 7.726820525000221
 spark_rdd; 3; 3; 0.03611912199994549
 coordinate_matrix; 3; 3; 10.01799816700077
 svd; 3; 3; 9.14415760799966
 pca; 3; 3; 1.767488763000074
 spark_setup; 4; 3; 8.212751823999497
 spark_rdd; 4; 3; 0.031087502999071148
 coordinate_matrix; 4; 3; 9.213887210000394
 svd; 4; 3; 8.742696715999045
 pca; 4; 3; 1.6288579560005019
 matrix_read; 0; 0; 0.6711979510000674
 spark_setup; 0; 3; 17.553670199999033
 spark_rdd; 0; 3; 0.41282843999943
 coordinate_matrix; 0; 3; 8.88797661299941
 svd; 0; 3; 12.772006831999533
 pca; 0; 3; 2.3674272259995632
 spark_setup; 1; 3; 7.979203834998771
 spark_rdd; 1; 3; 0.0537486719986191
 coordinate_matrix; 1; 3; 10.406967765000445
 svd; 1; 3; 10.292499406999923
 pca; 1; 3; 1.9190675699992426
 spark_setup; 2; 3; 8.00849960800042
 spark_rdd; 2; 3; 0.024293706999742426
 coordinate_matrix; 2; 3; 10.340204051999535
 svd; 2; 3; 9.644056889001149
 pca; 2; 3; 2.803979412999979
 spark_setup; 3; 3; 7.828734672999417
 spark_rdd; 3; 3; 0.027035434999561403
 coordinate_matrix; 3; 3; 10.1127861570003
 svd; 3; 3; 8.979724721999446
 pca; 3; 3; 1.5830909930009511
 spark_setup; 4; 3; 7.836246270000629
 spark_rdd; 4; 3; 0.04726118800135737
 coordinate_matrix; 4; 3; 10.017321833000096
 svd; 4; 3; 9.028071260998331
 pca; 4; 3; 1.6900943279997591
 matrix_read; 0; 0; 0.6751791999995476
 spark_setup; 0; 3; 17.9151033979997
 spark_rdd; 0; 3; 0.4505712720001611
 coordinate_matrix; 0; 3; 9.83829890800007
 svd; 0; 3; 12.842043632999776
 pca; 0; 3; 2.4829635360001703
 spark_setup; 1; 3; 8.964534700000513
 spark_rdd; 1; 3; 0.04418917200018768
 coordinate_matrix; 1; 3; 11.260232995000479
 svd; 1; 3; 9.775055330999749
 pca; 1; 3; 2.213249872000233
 spark_setup; 2; 3; 7.914952226001333
 spark_rdd; 2; 3; 0.023817528001018218
 coordinate_matrix; 2; 3; 10.64405290799914
 svd; 2; 3; 8.674269608000031
 pca; 2; 3; 1.779438248000588
 spark_setup; 3; 3; 7.947884328999862
 spark_rdd; 3; 3; 0.033442149999245885
 coordinate_matrix; 3; 3; 10.821959094999329
 svd; 3; 3; 9.531490789999225
 pca; 3; 3; 1.721572512999046
 spark_setup; 4; 3; 6.806155444000979
 spark_rdd; 4; 3; 0.030551104000551277
 coordinate_matrix; 4; 3; 10.444400119999045
 matrix_read; 0; 0; 0.6748358310005642
 spark_setup; 0; 4; 17.850842210999872
 spark_rdd; 0; 4; 0.4696559959993465
 coordinate_matrix; 0; 4; 9.93427505100044
 svd; 0; 4; 11.841027933999612
 pca; 0; 4; 2.742191463999916
 spark_setup; 1; 4; 8.260804653999912
 spark_rdd; 1; 4; 0.04899856500014721
 coordinate_matrix; 1; 4; 10.451195024999834
 svd; 1; 4; 9.956736925999394
 pca; 1; 4; 2.1314934449992506
 spark_setup; 2; 4; 8.136388648999855
 spark_rdd; 2; 4; 0.044008496000060404
 coordinate_matrix; 2; 4; 10.669562750000296
 svd; 2; 4; 8.934294892000253
 pca; 2; 4; 1.9697116690003895
 spark_setup; 3; 4; 8.015460363000784
 spark_rdd; 3; 4; 0.022051214999919466
 coordinate_matrix; 3; 4; 9.60644314199999
 svd; 3; 4; 8.700803532999998
 pca; 3; 4; 1.7852374229996713
 spark_setup; 4; 4; 8.067596480999782
 spark_rdd; 4; 4; 0.02210418100003153
 coordinate_matrix; 4; 4; 9.567402071000288
 svd; 4; 4; 9.560299105999547
 pca; 4; 4; 2.919358392000504
 matrix_read; 0; 0; 0.6787853989999348
 spark_setup; 0; 4; 21.16108127500047
 spark_rdd; 0; 4; 0.4142253529998925
 coordinate_matrix; 0; 4; 9.382403843999782
 svd; 0; 4; 12.788579265000408
 pca; 0; 4; 2.5874567010005194
 spark_setup; 1; 4; 7.993665664000218
 spark_rdd; 1; 4; 0.044046904999959224
 coordinate_matrix; 1; 4; 9.500008869999874
 svd; 1; 4; 10.469054182999571
 pca; 1; 4; 2.2323218169995016
 spark_setup; 2; 4; 8.119263675000184
 spark_rdd; 2; 4; 0.03470143899994582
 coordinate_matrix; 2; 4; 10.489759794000747
 svd; 2; 4; 8.934071970999867
 pca; 2; 4; 1.7109317059994282
 spark_setup; 3; 4; 7.861914350000006
 spark_rdd; 3; 4; 0.041527793000568636
 coordinate_matrix; 3; 4; 10.08456354900045
 svd; 3; 4; 9.02849581999999
 pca; 3; 4; 1.5757199730005595
 spark_setup; 4; 4; 8.195707120000407
 spark_rdd; 4; 4; 0.03184195900030318
 coordinate_matrix; 4; 4; 10.666503705999276
 svd; 4; 4; 9.636415365000175
 pca; 4; 4; 1.7780068490001213
 matrix_read; 0; 0; 0.9885574100007943
 spark_setup; 0; 4; 17.092828273998748
 spark_rdd; 0; 4; 0.4429672219994245
 coordinate_matrix; 0; 4; 9.85068162800053
 svd; 0; 4; 13.34974506799881
 pca; 0; 4; 2.539423001000614
 spark_setup; 1; 4; 8.00884268899972
 spark_rdd; 1; 4; 0.051505240000551566
 coordinate_matrix; 1; 4; 10.341239708001012
 svd; 1; 4; 10.094711941999776
 pca; 1; 4; 1.9743769710003107
 spark_setup; 2; 4; 7.955249130998709
 spark_rdd; 2; 4; 0.023716801000773557
 coordinate_matrix; 2; 4; 9.897800152000855
 svd; 2; 4; 9.816989668999668
 pca; 2; 4; 1.7570963699999993
 spark_setup; 3; 4; 7.9184721279998485
 spark_rdd; 3; 4; 0.049635874000159674
 coordinate_matrix; 3; 4; 10.15954789100033
 svd; 3; 4; 9.240497888000391
 pca; 3; 4; 2.057150548000209
 spark_setup; 4; 4; 8.014304977001302
 spark_rdd; 4; 4; 0.051900985001338995
 coordinate_matrix; 4; 4; 10.223918743999093
 svd; 4; 4; 9.866046822999124
 pca; 4; 4; 1.6546099999995931
 matrix_read; 0; 0; 1.0132161029996496
 spark_setup; 0; 4; 18.1087649279998
 spark_rdd; 0; 4; 0.42939790900163644
 coordinate_matrix; 0; 4; 9.237724024000272
 svd; 0; 4; 12.358055472999695
 pca; 0; 4; 2.412672473001294
 spark_setup; 1; 4; 7.980436505000398
 spark_rdd; 1; 4; 0.05192345400064369
 coordinate_matrix; 1; 4; 10.934643636999681
 svd; 1; 4; 9.85383861199989
 pca; 1; 4; 2.122228205000283
 spark_setup; 2; 4; 7.9401920630007226
 spark_rdd; 2; 4; 0.05850749599994742
 coordinate_matrix; 2; 4; 10.278128616000686
 svd; 2; 4; 8.929068731998996
 pca; 2; 4; 1.6999288669994712
 spark_setup; 3; 4; 7.954384946999198
 spark_rdd; 3; 4; 0.0245363060003001
 coordinate_matrix; 3; 4; 9.553443008999238
 svd; 3; 4; 9.411649329000284
 pca; 3; 4; 1.6770955640004104
 spark_setup; 4; 4; 7.751934538999194
 spark_rdd; 4; 4; 0.0330375979992823
 coordinate_matrix; 4; 4; 9.930787709001379
 svd; 4; 4; 9.274025824999626
 matrix_read; 0; 0; 1.1523412320002535
 spark_setup; 0; 4; 16.882820167998943
 spark_rdd; 0; 4; 0.4132224250006402
 coordinate_matrix; 0; 4; 9.425629727998967
 svd; 0; 4; 13.155242311999245
 pca; 0; 4; 2.4343708110009175
 spark_setup; 1; 4; 8.035470734001137
 spark_rdd; 1; 4; 0.04771958599849313
 coordinate_matrix; 1; 4; 10.183496483999988
 svd; 1; 4; 10.29374304799967
 pca; 1; 4; 2.154421336001178
 spark_setup; 2; 4; 8.0907730859999
 spark_rdd; 2; 4; 0.04370169600042573
 coordinate_matrix; 2; 4; 9.963709999001367
 svd; 2; 4; 9.547948939998605
 pca; 2; 4; 1.747899056001188
 spark_setup; 3; 4; 7.969477782000467
 spark_rdd; 3; 4; 0.0446315749995847
 coordinate_matrix; 3; 4; 10.061342136001258
 svd; 3; 4; 9.25664511299874
 pca; 3; 4; 1.777438475000963
 spark_setup; 4; 4; 7.924607679000474
 spark_rdd; 4; 4; 0.02751414800150087
 coordinate_matrix; 4; 4; 10.60221620700031
 svd; 4; 4; 8.53065441599938
 pca; 4; 4; 1.7224279450001632
 matrix_read; 0; 0; 0.6692499159998988
 spark_setup; 0; 5; 17.98776910000015
 spark_rdd; 0; 5; 0.44835366100051033
 coordinate_matrix; 0; 5; 9.614542381999854
 svd; 0; 5; 12.992649862999315
 pca; 0; 5; 2.7013671670001713
 spark_setup; 1; 5; 8.064964833999511
 spark_rdd; 1; 5; 0.05547008000030473
 coordinate_matrix; 1; 5; 10.816456723000556
 svd; 1; 5; 9.74345234699922
 pca; 1; 5; 2.0192819820003933
 spark_setup; 2; 5; 7.930324832999759
 spark_rdd; 2; 5; 0.044870113000797573
 coordinate_matrix; 2; 5; 9.786555178000526
 svd; 2; 5; 9.006259558999773
 pca; 2; 5; 2.0228729239997847
 spark_setup; 3; 5; 8.055442134000259
 spark_rdd; 3; 5; 0.02523425099934684
 coordinate_matrix; 3; 5; 10.147524616000737
 svd; 3; 5; 8.96632932600005
 pca; 3; 5; 1.8623628879995522
 spark_setup; 4; 5; 7.951912401999834
 spark_rdd; 4; 5; 0.027198787999623164
 coordinate_matrix; 4; 5; 11.156066565999936
 svd; 4; 5; 8.99105280599997
 pca; 4; 5; 1.8128297590001239
 matrix_read; 0; 0; 0.9902661099995385
 spark_setup; 0; 5; 17.512851618999775
 spark_rdd; 0; 5; 0.41860799100049917
 coordinate_matrix; 0; 5; 9.0648374350003
 svd; 0; 5; 12.339885350999793
 pca; 0; 5; 2.558746840999447
 spark_setup; 1; 5; 7.900558196999555
 spark_rdd; 1; 5; 0.04407529199943383
 coordinate_matrix; 1; 5; 10.758169261999683
 svd; 1; 5; 9.753698604999954
 pca; 1; 5; 1.9829611269997258
 spark_setup; 2; 5; 8.006230234000213
 spark_rdd; 2; 5; 0.03323188299964386
 coordinate_matrix; 2; 5; 9.90264060699974
 svd; 2; 5; 9.370368150000104
 pca; 2; 5; 1.7657031760008977
 spark_setup; 3; 5; 7.012780527999894
 spark_rdd; 3; 5; 0.022218988999156863
 coordinate_matrix; 3; 5; 10.128451251000115
 svd; 3; 5; 9.534231128000101
 pca; 3; 5; 1.6772422200001529
 spark_setup; 4; 5; 7.910713128999305
 spark_rdd; 4; 5; 0.04763320999973075
 coordinate_matrix; 4; 5; 9.46262665300037
 svd; 4; 5; 8.937334457000361
 pca; 4; 5; 2.226555487999576
 matrix_read; 0; 0; 0.6677186859997164
 spark_setup; 0; 5; 16.63969643100063
 spark_rdd; 0; 5; 0.4481897610003216
 coordinate_matrix; 0; 5; 10.067954758000269
 svd; 0; 5; 13.013372725999943
 pca; 0; 5; 2.5254898279999907
 spark_setup; 1; 5; 8.065724334001061
 spark_rdd; 1; 5; 0.048416632000225945
 coordinate_matrix; 1; 5; 10.76437679099945
 svd; 1; 5; 10.303121507999094
 pca; 1; 5; 2.0318614570005593
 spark_setup; 2; 5; 8.141659709999658
 spark_rdd; 2; 5; 0.07090650199825177
 coordinate_matrix; 2; 5; 10.062310403998708
 svd; 2; 5; 8.785903138999856
 pca; 2; 5; 1.7470496840014675
 spark_setup; 3; 5; 7.856133614999635
 spark_rdd; 3; 5; 0.051638077000461635
 coordinate_matrix; 3; 5; 10.151286020000043
 svd; 3; 5; 9.150519347998852
 pca; 3; 5; 1.685109496998848
 spark_setup; 4; 5; 7.843518014000438
 spark_rdd; 4; 5; 0.035825885001031565
 coordinate_matrix; 4; 5; 10.325134766999327
 svd; 4; 5; 8.716185925999525
 pca; 4; 5; 2.990486290998888
 matrix_read; 0; 0; 0.6680077649998566
 spark_setup; 0; 5; 17.46044865299882
 spark_rdd; 0; 5; 0.4200909250012046
 coordinate_matrix; 0; 5; 8.701960880000115
 svd; 0; 5; 12.531304840000303
 pca; 0; 5; 2.8557401719990594
 spark_setup; 1; 5; 8.386239378000028
 spark_rdd; 1; 5; 0.05421974099954241
 coordinate_matrix; 1; 5; 10.398278234999452
 svd; 1; 5; 10.450163745999816
 pca; 1; 5; 2.297238789000403
 spark_setup; 2; 5; 7.845661244999064
 spark_rdd; 2; 5; 0.03900570299992978
 coordinate_matrix; 2; 5; 9.996755419000692
 svd; 2; 5; 8.630663212999934
 pca; 2; 5; 1.776097498001036
 spark_setup; 3; 5; 7.854118553999797
 spark_rdd; 3; 5; 0.022518493000461604
 coordinate_matrix; 3; 5; 10.040435286000502
 svd; 3; 5; 8.86901721599861
 pca; 3; 5; 2.473296637999738
 spark_setup; 4; 5; 7.883505097001034
 spark_rdd; 4; 5; 0.03011596400028793
 coordinate_matrix; 4; 5; 9.862961819999327
 svd; 4; 5; 9.405535755000528
 matrix_read; 0; 0; 0.6717262259990093
 spark_setup; 0; 5; 17.989486819000376
 spark_rdd; 0; 5; 0.6424979200000962
 coordinate_matrix; 0; 5; 9.647535476000485
 svd; 0; 5; 12.627149590000045
 pca; 0; 5; 2.7145197939989885
 spark_setup; 1; 5; 8.20658195499891
 spark_rdd; 1; 5; 0.053187020999757806
 coordinate_matrix; 1; 5; 9.858508855000764
 svd; 1; 5; 9.692283524000231
 pca; 1; 5; 2.0091753549986606
 spark_setup; 2; 5; 7.910227030999522
 spark_rdd; 2; 5; 0.04816530999960378
 coordinate_matrix; 2; 5; 10.87449531600032
 svd; 2; 5; 8.482100682998862
 pca; 2; 5; 1.8206314729995938
 spark_setup; 3; 5; 7.964035065999269
 spark_rdd; 3; 5; 0.01995906800038938
 coordinate_matrix; 3; 5; 9.820785076999528
 svd; 3; 5; 9.49963006500002
 pca; 3; 5; 1.995874347998324
 spark_setup; 4; 5; 8.111391558000832
 spark_rdd; 4; 5; 0.04630641299991112
 coordinate_matrix; 4; 5; 9.611254316001578
 svd; 4; 5; 9.049719459000698
 pca; 4; 5; 2.8564838679994864
 matrix_read; 0; 0; 0.7347317200001271
 spark_setup; 0; 6; 17.457797857000514
 spark_rdd; 0; 6; 0.43997534299978724
 coordinate_matrix; 0; 6; 9.383242981999501
 svd; 0; 6; 12.327405890000591
 pca; 0; 6; 2.546506923000379
 spark_setup; 1; 6; 7.9649201290003475
 spark_rdd; 1; 6; 0.045191461999820604
 coordinate_matrix; 1; 6; 9.948495659999935
 svd; 1; 6; 10.201330691000294
 pca; 1; 6; 2.2864322820005327
 spark_setup; 2; 6; 7.8506184779998875
 spark_rdd; 2; 6; 0.03656269000020984
 coordinate_matrix; 2; 6; 9.952987057999962
 svd; 2; 6; 8.980662257000404
 pca; 2; 6; 1.7293191800008572
 spark_setup; 3; 6; 7.947697655999946
 spark_rdd; 3; 6; 0.026075994999700924
 coordinate_matrix; 3; 6; 10.490110221000577
 svd; 3; 6; 9.181484451999495
 pca; 3; 6; 2.1147578149993933
 spark_setup; 4; 6; 8.192228918999717
 spark_rdd; 4; 6; 0.023607482999977947
 coordinate_matrix; 4; 6; 10.01685396799985
 svd; 4; 6; 8.628083204999712
 pca; 4; 6; 1.8641939970002568
 matrix_read; 0; 0; 0.6709434789991064
 spark_setup; 0; 6; 17.706245904999378
 spark_rdd; 0; 6; 0.44454527599918947
 coordinate_matrix; 0; 6; 9.392488318000687
 svd; 0; 6; 12.509941710999556
 pca; 0; 6; 2.6273568510005134
 spark_setup; 1; 6; 7.9399669430004
 spark_rdd; 1; 6; 0.05360681199999817
 coordinate_matrix; 1; 6; 9.958290577998923
 svd; 1; 6; 10.418915019999986
 pca; 1; 6; 1.9447920230013551
 spark_setup; 2; 6; 7.993740391999381
 spark_rdd; 2; 6; 0.0232509180004854
 coordinate_matrix; 2; 6; 9.66852383100013
 svd; 2; 6; 9.272214876998987
 pca; 2; 6; 1.7040375899996434
 spark_setup; 3; 6; 8.067293670001163
 spark_rdd; 3; 6; 0.03267060500002117
 coordinate_matrix; 3; 6; 9.142633826000747
 svd; 3; 6; 8.895924569998897
 pca; 3; 6; 1.658344876999763
 spark_setup; 4; 6; 7.879895182999462
 spark_rdd; 4; 6; 0.04076334300043527
 coordinate_matrix; 4; 6; 9.997515663999366
 svd; 4; 6; 8.969953092000651
 pca; 4; 6; 2.229570927000168
 matrix_read; 0; 0; 0.6720426609990682
 spark_setup; 0; 6; 17.906031751001137
 spark_rdd; 0; 6; 0.45284372700007225
 coordinate_matrix; 0; 6; 9.229160913000669
 svd; 0; 6; 12.663658308001686
 pca; 0; 6; 2.4463542040011816
 spark_setup; 1; 6; 7.932360745999176
 spark_rdd; 1; 6; 0.05516417299986642
 coordinate_matrix; 1; 6; 11.067149112999687
 svd; 1; 6; 10.114253088000623
 pca; 1; 6; 2.079710678999618
 spark_setup; 2; 6; 8.062693821999346
 spark_rdd; 2; 6; 0.04304102700007206
 coordinate_matrix; 2; 6; 9.659009089999017
 svd; 2; 6; 9.07114784499936
 pca; 2; 6; 1.8871257980008522
 spark_setup; 3; 6; 8.000034549000702
 spark_rdd; 3; 6; 0.032103477000418934
 coordinate_matrix; 3; 6; 10.008845586999087
 svd; 3; 6; 9.091280742999515
 pca; 3; 6; 1.874180980001256
 spark_setup; 4; 6; 7.949076844999581
 spark_rdd; 4; 6; 0.06306327099991904
 coordinate_matrix; 4; 6; 10.24737704799918
 svd; 4; 6; 9.061232591999214
 pca; 4; 6; 1.6015174010008195
 matrix_read; 0; 0; 0.6930663619987172
 spark_setup; 0; 6; 18.892600299999685
 spark_rdd; 0; 6; 0.4021600739997666
 coordinate_matrix; 0; 6; 9.491037196999969
 svd; 0; 6; 12.186332257999311
 pca; 0; 6; 2.4622861579991877
 spark_setup; 1; 6; 7.976352494999446
 spark_rdd; 1; 6; 0.039652998000747175
 coordinate_matrix; 1; 6; 10.768064792000587
 svd; 1; 6; 9.757123725999918
 pca; 1; 6; 2.296560729999328
 spark_setup; 2; 6; 7.870699255001455
 spark_rdd; 2; 6; 0.035400312999627204
 coordinate_matrix; 2; 6; 10.545518136999817
 svd; 2; 6; 8.596507366000878
 pca; 2; 6; 2.017748534999555
 spark_setup; 3; 6; 7.8769507790002535
 spark_rdd; 3; 6; 0.07751077499960957
 coordinate_matrix; 3; 6; 9.489080455001385
 svd; 3; 6; 9.27730511899972
 pca; 3; 6; 2.571381731000656
 spark_setup; 4; 6; 7.97038467800121
 spark_rdd; 4; 6; 0.028906870998980594
 coordinate_matrix; 4; 6; 10.440057026000432
 svd; 4; 6; 8.821383459999197
 pca; 4; 6; 2.7653153560004284
 matrix_read; 0; 0; 0.6722538859994529
 spark_setup; 0; 7; 17.566018204000102
 spark_rdd; 0; 7; 0.4400864429999274
 coordinate_matrix; 0; 7; 9.422299470000326
 svd; 0; 7; 12.15870697399987
 pca; 0; 7; 2.5149099019999994
 spark_setup; 1; 7; 8.076492285000313
 spark_rdd; 1; 7; 0.04606039800000872
 coordinate_matrix; 1; 7; 11.496127058000638
 svd; 1; 7; 10.192557196999587
 pca; 1; 7; 2.126752477000082
 spark_setup; 2; 7; 7.965209286000572
 spark_rdd; 2; 7; 0.028852350000306615
 coordinate_matrix; 2; 7; 10.487752545999683
 svd; 2; 7; 9.457653344000391
 pca; 2; 7; 1.6307899249995899
 spark_setup; 3; 7; 8.055205722999744
 spark_rdd; 3; 7; 0.028985535000174423
 coordinate_matrix; 3; 7; 10.274732634999964
 svd; 3; 7; 9.464703611000004
 pca; 3; 7; 1.6294911960003446
 spark_setup; 4; 7; 7.893281658999513
 spark_rdd; 4; 7; 0.025546488000145473
 coordinate_matrix; 4; 7; 10.485445493999578
 svd; 4; 7; 9.142730700999891
 pca; 4; 7; 2.786803420999604
 matrix_read; 0; 0; 0.6686150069999712
 spark_setup; 0; 7; 17.616617449999467
 spark_rdd; 0; 7; 0.46055803800118156
 coordinate_matrix; 0; 7; 9.122090061999188
 svd; 0; 7; 13.410588156999438
 pca; 0; 7; 2.74022320199947
 spark_setup; 1; 7; 8.152316480998707
 spark_rdd; 1; 7; 0.051939922999736154
 coordinate_matrix; 1; 7; 9.874779474999741
 svd; 1; 7; 10.37432250799975
 pca; 1; 7; 2.201522171000761
 spark_setup; 2; 7; 7.920244712999192
 spark_rdd; 2; 7; 0.04920449100063706
 coordinate_matrix; 2; 7; 10.18454635099988
 svd; 2; 7; 9.08228813200003
 pca; 2; 7; 1.7048900310001045
 spark_setup; 3; 7; 8.098679271000947
 spark_rdd; 3; 7; 0.025343520999740576
 coordinate_matrix; 3; 7; 9.613258727000357
 svd; 3; 7; 9.079897097999492
 pca; 3; 7; 1.6729508219996205
 spark_setup; 4; 7; 7.938117607000095
 spark_rdd; 4; 7; 0.04020834600123635
 coordinate_matrix; 4; 7; 9.876453000000765
 svd; 4; 7; 8.499659658000382
 matrix_read; 0; 0; 0.7889328419987578
 spark_setup; 0; 7; 17.2935456539999
 spark_rdd; 0; 7; 0.41212497299966344
 coordinate_matrix; 0; 7; 9.69260031399972
 svd; 0; 7; 12.144992045001345
 pca; 0; 7; 2.8090676160009025
 spark_setup; 1; 7; 8.217139057000168
 spark_rdd; 1; 7; 0.05209289800041006
 coordinate_matrix; 1; 7; 10.479621165000935
 svd; 1; 7; 10.135571957000138
 pca; 1; 7; 1.999633179000739
 spark_setup; 2; 7; 8.012929706999785
 spark_rdd; 2; 7; 0.032661365999956615
 coordinate_matrix; 2; 7; 9.60258058799991
 svd; 2; 7; 9.561767643999701
 pca; 2; 7; 1.738098521000211
 spark_setup; 3; 7; 7.826016533999791
 spark_rdd; 3; 7; 0.020887368998955935
 coordinate_matrix; 3; 7; 10.573517440001524
 svd; 3; 7; 8.765373255000668
 pca; 3; 7; 1.9936851889997342
 spark_setup; 4; 7; 8.12500262499998
 spark_rdd; 4; 7; 0.05177216599986423
 coordinate_matrix; 4; 7; 9.932790331000433
 svd; 4; 7; 8.962959819999014
 pca; 4; 7; 3.1566736320000928
 matrix_read; 0; 0; 0.718073837000702
 spark_setup; 0; 7; 17.436514189999798
 spark_rdd; 0; 7; 0.4265077050004038
 coordinate_matrix; 0; 7; 9.538838787999339
 svd; 0; 7; 12.704664959999718
 pca; 0; 7; 2.6593151010001748
 spark_setup; 1; 7; 8.145175416999336
 spark_rdd; 1; 7; 0.04931286899955012
 coordinate_matrix; 1; 7; 9.89786125700084
 svd; 1; 7; 10.50552889500068
 pca; 1; 7; 1.9108922069990513
 spark_setup; 2; 7; 7.345045209000091
 spark_rdd; 2; 7; 0.04405112700078462
 coordinate_matrix; 2; 7; 10.095165024999005
 svd; 2; 7; 9.256570151999767
 pca; 2; 7; 1.663003273999493
 spark_setup; 3; 7; 7.76063025700023
 spark_rdd; 3; 7; 0.022029263000149513
 coordinate_matrix; 3; 7; 10.137944857999173
 svd; 3; 7; 9.270576821001669
 pca; 3; 7; 1.7313135280001006
 spark_setup; 4; 7; 7.987928099000783
 spark_rdd; 4; 7; 0.03873492300044745
 coordinate_matrix; 4; 7; 9.62947640099992
 svd; 4; 7; 8.770731180000439
 matrix_read; 0; 0; 0.6708431229999405
 spark_setup; 0; 8; 18.019572818000597
 spark_rdd; 0; 8; 0.44033106499955466
 coordinate_matrix; 0; 8; 8.566016497999954
 svd; 0; 8; 13.413622559000032
 pca; 0; 8; 2.894556363000447
 spark_setup; 1; 8; 8.075272271999893
 spark_rdd; 1; 8; 0.05764268599978095
 coordinate_matrix; 1; 8; 10.85045975400044
 svd; 1; 8; 10.444746352999573
 pca; 1; 8; 1.946600832000513
 spark_setup; 2; 8; 8.030644749000203
 spark_rdd; 2; 8; 0.034900714000286825
 coordinate_matrix; 2; 8; 10.369412076000117
 svd; 2; 8; 9.21802095000021
 pca; 2; 8; 1.7646875330001421
 spark_setup; 3; 8; 7.932749562999561
 spark_rdd; 3; 8; 0.01994510900021851
 coordinate_matrix; 3; 8; 9.637698561999969
 svd; 3; 8; 8.76418301800004
 pca; 3; 8; 1.6760132099998373
 spark_setup; 4; 8; 7.862320417000774
 spark_rdd; 4; 8; 0.04596239300008165
 coordinate_matrix; 4; 8; 9.629600338999808
 svd; 4; 8; 8.987691129000268
 pca; 4; 8; 1.6396973079999952
 matrix_read; 0; 0; 0.6714855569989595
 spark_setup; 0; 8; 18.133571123000365
 spark_rdd; 0; 8; 0.4768528189997596
 coordinate_matrix; 0; 8; 9.474102985999707
 svd; 0; 8; 12.899579872999311
 pca; 0; 8; 2.578936337000414
 spark_setup; 1; 8; 7.992905586999768
 spark_rdd; 1; 8; 0.04879491799874813
 coordinate_matrix; 1; 8; 10.172459004999837
 svd; 1; 8; 9.84360283100068
 pca; 1; 8; 2.0718812520008214
 spark_setup; 2; 8; 8.28250351799943
 spark_rdd; 2; 8; 0.02835690599931695
 coordinate_matrix; 2; 8; 10.347919158999503
 svd; 2; 8; 9.811548563999168
 pca; 2; 8; 1.7585275679994083
 spark_setup; 3; 8; 7.786518068000078
 spark_rdd; 3; 8; 0.031171925998933148
 coordinate_matrix; 3; 8; 10.453246805000163
 svd; 3; 8; 9.15992438900139
 pca; 3; 8; 1.6005796249992272
 spark_setup; 4; 8; 8.07583764699848
 spark_rdd; 4; 8; 0.025900578999426216
 coordinate_matrix; 4; 8; 10.331419733000075
 svd; 4; 8; 8.849868621999121
 pca; 4; 8; 1.7995977139999013
 matrix_read; 0; 0; 0.6676451929997711
 spark_setup; 0; 8; 17.226306347998616
 spark_rdd; 0; 8; 0.43101841699899524
 coordinate_matrix; 0; 8; 9.46187667400045
 svd; 0; 8; 12.040145791999748
 pca; 0; 8; 2.6897636060002696
 spark_setup; 1; 8; 8.100066181999864
 spark_rdd; 1; 8; 0.05205294200095523
 coordinate_matrix; 1; 8; 10.337075387000368
 svd; 1; 8; 10.035611126999356
 pca; 1; 8; 2.2285568209990743
 spark_setup; 2; 8; 7.8951542300001165
 spark_rdd; 2; 8; 0.050202488999275374
 coordinate_matrix; 2; 8; 10.915194660999987
 svd; 2; 8; 9.000013274000594
 pca; 2; 8; 1.9074722409986862
 spark_setup; 3; 8; 7.719653448999452
 spark_rdd; 3; 8; 0.0228916450014367
 coordinate_matrix; 3; 8; 10.230037577000985
 svd; 3; 8; 8.916121188000034
 pca; 3; 8; 1.9664357130004646
 spark_setup; 4; 8; 7.898368262000076
 spark_rdd; 4; 8; 0.027044349000789225
 coordinate_matrix; 4; 8; 9.922219734000464
 svd; 4; 8; 8.658156998999402
 pca; 4; 8; 1.641138974999194
 matrix_read; 0; 0; 0.6728570180002862
 spark_setup; 0; 8; 17.869306779999533
 spark_rdd; 0; 8; 0.46538439899995865
 coordinate_matrix; 0; 8; 10.548760572999527
 svd; 0; 8; 12.908479341000202
 pca; 0; 8; 2.481136370999593
 spark_setup; 1; 8; 7.982462334000957
 spark_rdd; 1; 8; 0.05471116000080656
 coordinate_matrix; 1; 8; 10.694068069000423
 svd; 1; 8; 10.104193802000736
 pca; 1; 8; 2.0297971990003134
 spark_setup; 2; 8; 8.06070779500078
 spark_rdd; 2; 8; 0.04382885099948908
 coordinate_matrix; 2; 8; 9.698450660000162
 svd; 2; 8; 9.207872360000692
 pca; 2; 8; 2.6831159320008737
 spark_setup; 3; 8; 8.064495873999476
 spark_rdd; 3; 8; 0.027811681999082793
 coordinate_matrix; 3; 8; 10.0170247570004
 svd; 3; 8; 9.74958662500103
 pca; 3; 8; 1.7548895990003075
 spark_setup; 4; 8; 7.8508792119991995
 spark_rdd; 4; 8; 0.04287409099924844
 coordinate_matrix; 4; 8; 10.628711179000675
 svd; 4; 8; 8.906461452001167
 matrix_read; 0; 0; 0.6760794519996125
 spark_setup; 0; 9; 19.87618030500016
 spark_rdd; 0; 9; 0.442442495999785
 coordinate_matrix; 0; 9; 9.238652722000552
 svd; 0; 9; 12.345966792000581
 pca; 0; 9; 2.678552130000753
 spark_setup; 1; 9; 9.07571953400111
 spark_rdd; 1; 9; 0.04561739200107695
 coordinate_matrix; 1; 9; 10.26678586900016
 svd; 1; 9; 10.137229448000653
 pca; 1; 9; 2.0958262759995705
 spark_setup; 2; 9; 7.924191120000614
 spark_rdd; 2; 9; 0.07416894200105162
 coordinate_matrix; 2; 9; 9.530905968000297
 svd; 2; 9; 9.136036555999453
 pca; 2; 9; 1.6460652710011345
 spark_setup; 3; 9; 7.846934549999787
 spark_rdd; 3; 9; 0.05265133700049773
 coordinate_matrix; 3; 9; 9.287039504999484
 svd; 3; 9; 9.029718104000494
 pca; 3; 9; 1.7005024709997087
 spark_setup; 4; 9; 7.924634926999715
 spark_rdd; 4; 9; 0.0563950890009437
 coordinate_matrix; 4; 9; 10.365473692998421
 svd; 4; 9; 8.97558639700037
 pca; 4; 9; 1.945426222999231
 matrix_read; 0; 0; 0.6721887399999105
 spark_setup; 0; 9; 17.68719238000085
 spark_rdd; 0; 9; 0.43777201299963053
 coordinate_matrix; 0; 9; 10.04700317500101
 svd; 0; 9; 13.82173519800017
 pca; 0; 9; 2.547780644999875
 spark_setup; 1; 9; 7.997534117999749
 spark_rdd; 1; 9; 0.057432071000221185
 coordinate_matrix; 1; 9; 10.958013116000075
 svd; 1; 9; 10.202508714000942
 pca; 1; 9; 2.1083623160011484
 spark_setup; 2; 9; 8.071285596999587
 spark_rdd; 2; 9; 0.025105572000029497
 coordinate_matrix; 2; 9; 11.102860781000345
 svd; 2; 9; 10.299247275999733
 pca; 2; 9; 2.59541312500005
 spark_setup; 3; 9; 7.7904878620011
 spark_rdd; 3; 9; 0.021409634999145055
 coordinate_matrix; 3; 9; 11.06690791499932
 svd; 3; 9; 9.386599462999584
 pca; 3; 9; 1.7496228340005473
 spark_setup; 4; 9; 7.879213251999317
 spark_rdd; 4; 9; 0.03573382799913816
 coordinate_matrix; 4; 9; 10.696771828001147
 svd; 4; 9; 8.793727492999096
 pca; 4; 9; 1.6485387199991237
 matrix_read; 0; 0; 0.6774068659997283
 spark_setup; 0; 9; 16.929068040999482
 spark_rdd; 0; 9; 0.44636000100035744
 coordinate_matrix; 0; 9; 10.431499928999983
 svd; 0; 9; 13.997126374999425
 pca; 0; 9; 2.9417037650000566
 spark_setup; 1; 9; 8.236616307000077
 spark_rdd; 1; 9; 0.05578114300078596
 coordinate_matrix; 1; 9; 10.266377668000132
 svd; 1; 9; 10.256594249000045
 pca; 1; 9; 2.072380718000204
 spark_setup; 2; 9; 8.07013917599943
 spark_rdd; 2; 9; 0.03689560299972072
 coordinate_matrix; 2; 9; 10.504853194999669
 svd; 2; 9; 9.41618728100002
 pca; 2; 9; 1.738528566000241
 spark_setup; 3; 9; 8.157880388000194
 spark_rdd; 3; 9; 0.032162036000954686
 coordinate_matrix; 3; 9; 10.041915770998457
 svd; 3; 9; 9.31223070300075
 pca; 3; 9; 3.235985528001038
 spark_setup; 4; 9; 8.208994130000065
 spark_rdd; 4; 9; 0.020134332999077742
 coordinate_matrix; 4; 9; 10.014942081001209
 svd; 4; 9; 8.993536120999124
 pca; 4; 9; 3.0749933770002826
 matrix_read; 0; 0; 0.6765954370002873
 spark_setup; 0; 9; 18.553874250999797
 spark_rdd; 0; 9; 0.5031309830010287
 coordinate_matrix; 0; 9; 9.183600344000297
 svd; 0; 9; 13.024188872001105
 pca; 0; 9; 2.582346127999699
 spark_setup; 1; 9; 8.017033299000104
 spark_rdd; 1; 9; 0.04723937600101635
 coordinate_matrix; 1; 9; 10.459127987000102
 svd; 1; 9; 9.821213105000425
 pca; 1; 9; 2.0401130889986234
 spark_setup; 2; 9; 7.895085365000341
 spark_rdd; 2; 9; 0.022459185000116122
 coordinate_matrix; 2; 9; 10.149569391998739
 svd; 2; 9; 8.995214949998626
 pca; 2; 9; 1.9156183320010314
 spark_setup; 3; 9; 7.9675763939994795
 spark_rdd; 3; 9; 0.02422546000161674
 coordinate_matrix; 3; 9; 9.832271545999902
 svd; 3; 9; 9.88180851099969
 pca; 3; 9; 2.1506239800000913
 spark_setup; 4; 9; 7.897334724000757
 spark_rdd; 4; 9; 0.029283169000336784
 coordinate_matrix; 4; 9; 10.353505394999956
 svd; 4; 9; 8.78417745600018
 pca; 4; 9; 1.7389014990003488
